@startuml

entity Entity01 {
  * identifying_attribute : text
 --
  * mandatory_attribute : varchar(250)
  optional_attribute : varchar(5)
}

entity Entity02 {
  * mandatory attribute : int
  optional attribute : int
}

@enduml
